-------------------------------------------------------------------------------
Test set: com.lufthansa.webapplication.WebApplicationTests
-------------------------------------------------------------------------------
Tests run: 1, Failures: 0, Errors: 0, Skipped: 0, Time elapsed: 10.028 s - in com.lufthansa.webapplication.WebApplicationTests
