C:\LH\web-application\src\main\java\com\lufthansa\webapplication\controllers\ProfileController.java
C:\LH\web-application\src\main\java\com\lufthansa\webapplication\services\JobApplicationService.java
C:\LH\web-application\src\main\java\com\lufthansa\webapplication\WebApplication.java
C:\LH\web-application\src\main\java\com\lufthansa\webapplication\entities\Job.java
C:\LH\web-application\src\main\java\com\lufthansa\webapplication\controllers\MainController.java
C:\LH\web-application\src\main\java\com\lufthansa\webapplication\entities\User.java
C:\LH\web-application\src\main\java\com\lufthansa\webapplication\entities\Role.java
C:\LH\web-application\src\main\java\com\lufthansa\webapplication\repositories\RoleRepository.java
C:\LH\web-application\src\main\java\com\lufthansa\webapplication\services\UserService.java
C:\LH\web-application\src\main\java\com\lufthansa\webapplication\config\ApplicationSecurityConfiguration.java
C:\LH\web-application\src\main\java\com\lufthansa\webapplication\controllers\RegisterController.java
C:\LH\web-application\src\main\java\com\lufthansa\webapplication\entities\JobApplication.java
C:\LH\web-application\src\main\java\com\lufthansa\webapplication\controllers\UserController.java
C:\LH\web-application\src\main\java\com\lufthansa\webapplication\repositories\JobRepository.java
C:\LH\web-application\src\main\java\com\lufthansa\webapplication\services\JobService.java
C:\LH\web-application\src\main\java\com\lufthansa\webapplication\repositories\UserRepository.java
